%YAML 1.1
%TAG !u! tag:unity3d.com,2011:
--- !u!114 &11400000
MonoBehaviour:
  m_ObjectHideFlags: 0
  m_CorrespondingSourceObject: {fileID: 0}
  m_PrefabInstance: {fileID: 0}
  m_PrefabAsset: {fileID: 0}
  m_GameObject: {fileID: 0}
  m_Enabled: 1
  m_EditorHideFlags: 0
  m_Script: {fileID: 11500000, guid: fbde1e9b221a1b747a8f1b4c26bee064, type: 3}
  m_Name: '[Pal] - V'
  m_EditorClassIdentifier: 
  Letters: V
  Effects:
  - {fileID: 11400000, guid: 137ef38698578c14d928ddcfea783a93, type: 2}
  Rarity: {fileID: 11400000, guid: d36a3bb89f85dd54f92cfbe047dc475d, type: 2}
  ExecutionDuration: 0.25
