%YAML 1.1
%TAG !u! tag:unity3d.com,2011:
--- !u!114 &11400000
MonoBehaviour:
  m_ObjectHideFlags: 0
  m_CorrespondingSourceObject: {fileID: 0}
  m_PrefabInstance: {fileID: 0}
  m_PrefabAsset: {fileID: 0}
  m_GameObject: {fileID: 0}
  m_Enabled: 1
  m_EditorHideFlags: 0
  m_Script: {fileID: 11500000, guid: 02bc66bb1c78f7942ac4571f812b3f72, type: 3}
  m_Name: '[TE] - Damage 6'
  m_EditorClassIdentifier: 
  Target: 0
  Duration: 0
  Amount: 6
