%YAML 1.1
%TAG !u! tag:unity3d.com,2011:
--- !u!74 &7400000
AnimationClip:
  m_ObjectHideFlags: 0
  m_CorrespondingSourceObject: {fileID: 0}
  m_PrefabInstance: {fileID: 0}
  m_PrefabAsset: {fileID: 0}
  m_Name: Dot Pop In
  serializedVersion: 6
  m_Legacy: 0
  m_Compressed: 0
  m_UseHighQualityCurve: 1
  m_RotationCurves: []
  m_CompressedRotationCurves: []
  m_EulerCurves: []
  m_PositionCurves: []
  m_ScaleCurves:
  - curve:
      serializedVersion: 2
      m_Curve:
      - serializedVersion: 3
        time: 0
        value: {x: 0.00001, y: 0.00001, z: 1}
        inSlope: {x: 0.0000015627344, y: 0.0000015627344, z: 0}
        outSlope: {x: 0.0000015627344, y: 0.0000015627344, z: 0}
        tangentMode: 0
        weightedMode: 3
        inWeight: {x: 0.33333334, y: 0.33333334, z: 0.33333334}
        outWeight: {x: 0.3173413, y: 0.3173413, z: 0.33333334}
      - serializedVersion: 3
        time: 0.1
        value: {x: 1.1566938, y: 1.1557009, z: 1}
        inSlope: {x: -0.0000015330191, y: -0.0126481205, z: 0}
        outSlope: {x: 0.0000016568953, y: 0.013801938, z: 0}
        tangentMode: 0
        weightedMode: 3
        inWeight: {x: 0.7776112, y: 0.78510743, z: 0.33333334}
        outWeight: {x: 0.28778955, y: 0.28778955, z: 0.33333334}
      - serializedVersion: 3
        time: 0.35
        value: {x: 1, y: 1, z: 1}
        inSlope: {x: 0.0057854103, y: 0.0057854103, z: 0}
        outSlope: {x: 0.0057854103, y: 0.0057854103, z: 0}
        tangentMode: 0
        weightedMode: 3
        inWeight: {x: 0.7592176, y: 0.7592176, z: 0.33333334}
        outWeight: {x: 0.33333334, y: 0.33333334, z: 0.33333334}
      m_PreInfinity: 2
      m_PostInfinity: 2
      m_RotationOrder: 4
    path: 
  m_FloatCurves: []
  m_PPtrCurves: []
  m_SampleRate: 60
  m_WrapMode: 0
  m_Bounds:
    m_Center: {x: 0, y: 0, z: 0}
    m_Extent: {x: 0, y: 0, z: 0}
  m_ClipBindingConstant:
    genericBindings:
    - serializedVersion: 2
      path: 0
      attribute: 3
      script: {fileID: 0}
      typeID: 4
      customType: 0
      isPPtrCurve: 0
    pptrCurveMapping: []
  m_AnimationClipSettings:
    serializedVersion: 2
    m_AdditiveReferencePoseClip: {fileID: 0}
    m_AdditiveReferencePoseTime: 0
    m_StartTime: 0
    m_StopTime: 0.35
    m_OrientationOffsetY: 0
    m_Level: 0
    m_CycleOffset: 0
    m_HasAdditiveReferencePose: 0
    m_LoopTime: 0
    m_LoopBlend: 0
    m_LoopBlendOrientation: 0
    m_LoopBlendPositionY: 0
    m_LoopBlendPositionXZ: 0
    m_KeepOriginalOrientation: 0
    m_KeepOriginalPositionY: 1
    m_KeepOriginalPositionXZ: 0
    m_HeightFromFeet: 0
    m_Mirror: 0
  m_EditorCurves:
  - curve:
      serializedVersion: 2
      m_Curve:
      - serializedVersion: 3
        time: 0
        value: 0.00001
        inSlope: 0.0000015627344
        outSlope: 0.0000015627344
        tangentMode: 0
        weightedMode: 3
        inWeight: 0.33333334
        outWeight: 0.3173413
      - serializedVersion: 3
        time: 0.1
        value: 1.1566938
        inSlope: -0.0000015330191
        outSlope: 0.0000016568953
        tangentMode: 1
        weightedMode: 3
        inWeight: 0.7776112
        outWeight: 0.28778955
      - serializedVersion: 3
        time: 0.35
        value: 1
        inSlope: 0.0057854103
        outSlope: 0.0057854103
        tangentMode: 0
        weightedMode: 3
        inWeight: 0.7592176
        outWeight: 0.33333334
      m_PreInfinity: 2
      m_PostInfinity: 2
      m_RotationOrder: 4
    attribute: m_LocalScale.x
    path: 
    classID: 224
    script: {fileID: 0}
  - curve:
      serializedVersion: 2
      m_Curve:
      - serializedVersion: 3
        time: 0
        value: 0.00001
        inSlope: 0.0000015627344
        outSlope: 0.0000015627344
        tangentMode: 0
        weightedMode: 3
        inWeight: 0.33333334
        outWeight: 0.3173413
      - serializedVersion: 3
        time: 0.1
        value: 1.1557009
        inSlope: -0.0126481205
        outSlope: 0.013801938
        tangentMode: 1
        weightedMode: 3
        inWeight: 0.78510743
        outWeight: 0.28778955
      - serializedVersion: 3
        time: 0.35
        value: 1
        inSlope: 0.0057854103
        outSlope: 0.0057854103
        tangentMode: 0
        weightedMode: 3
        inWeight: 0.7592176
        outWeight: 0.33333334
      m_PreInfinity: 2
      m_PostInfinity: 2
      m_RotationOrder: 4
    attribute: m_LocalScale.y
    path: 
    classID: 224
    script: {fileID: 0}
  - curve:
      serializedVersion: 2
      m_Curve:
      - serializedVersion: 3
        time: 0
        value: 1
        inSlope: 0
        outSlope: 0
        tangentMode: 136
        weightedMode: 3
        inWeight: 0.33333334
        outWeight: 0.33333334
      - serializedVersion: 3
        time: 0.35
        value: 1
        inSlope: 0
        outSlope: 0
        tangentMode: 136
        weightedMode: 3
        inWeight: 0.33333334
        outWeight: 0.33333334
      m_PreInfinity: 2
      m_PostInfinity: 2
      m_RotationOrder: 4
    attribute: m_LocalScale.z
    path: 
    classID: 224
    script: {fileID: 0}
  m_EulerEditorCurves: []
  m_HasGenericRootTransform: 0
  m_HasMotionFloatCurves: 0
  m_Events: []
